{
  "servers": {
    "earth@server:02f5c5e7-d43d-40e4-af70-b5dc7083e4a5": {
      "genSettings": "",
      "mapState": {
        "zoomLevel": 19.0,
        "centerLongitude": -67.58340328931808,
        "centerLatitude": 10.272430771115484,
        "mapStyle": "osm",
        "infoPannel": false,
        "debug": false,
        "f1": false,
        "visibilitySettings": {
          "mobs": true,
          "creatures": true,
          "right_click_marker": false,
          "main_player_marker": true,
          "player_directions": true,
          "other_players": true,
          "player_names": true
        }
      },
      "hasShownWelcome": true
    },
    "worldgen@integrated_server@localhost": {
      "genSettings": "",
      "mapState": {
        "zoomLevel": 0.0,
        "centerLongitude": 0.0,
        "centerLatitude": 0.0,
        "mapStyle": "",
        "infoPannel": false,
        "debug": false,
        "f1": false,
        "visibilitySettings": {}
      },
      "hasShownWelcome": true
    },
    "sailing@integrated_server@localhost": {
      "genSettings": "",
      "mapState": {
        "zoomLevel": 0.0,
        "centerLongitude": 0.0,
        "centerLatitude": 0.0,
        "mapStyle": "",
        "infoPannel": false,
        "debug": false,
        "f1": false,
        "visibilitySettings": {}
      },
      "hasShownWelcome": true
    },
    "earth@server:e805bbda-3321-43d5-a125-f16179cc3250": {
      "genSettings": "",
      "mapState": {
        "zoomLevel": 0.0,
        "centerLongitude": 0.0,
        "centerLatitude": 0.0,
        "mapStyle": "",
        "infoPannel": false,
        "debug": false,
        "f1": false,
        "visibilitySettings": {}
      },
      "hasShownWelcome": true
    },
    "agua@integrated_server@localhost": {
      "genSettings": "",
      "mapState": {
        "zoomLevel": 0.0,
        "centerLongitude": 0.0,
        "centerLatitude": 0.0,
        "mapStyle": "",
        "infoPannel": false,
        "debug": false,
        "f1": false,
        "visibilitySettings": {}
      },
      "hasShownWelcome": true
    },
    "earth@server:aafa9dfb-e172-48a8-8360-3d7901c2e6f4": {
      "genSettings": "",
      "mapState": {
        "zoomLevel": 13.0,
        "centerLongitude": -67.54212677478789,
        "centerLatitude": 10.596522135943653,
        "mapStyle": "osm",
        "infoPannel": false,
        "debug": false,
        "f1": false,
        "visibilitySettings": {
          "mobs": true,
          "creatures": true,
          "right_click_marker": false,
          "main_player_marker": true,
          "player_directions": true,
          "other_players": true,
          "player_names": true
        }
      },
      "hasShownWelcome": true
    },
    "trees@integrated_server@localhost": {
      "genSettings": "",
      "mapState": {
        "zoomLevel": 0.0,
        "centerLongitude": 0.0,
        "centerLatitude": 0.0,
        "mapStyle": "",
        "infoPannel": false,
        "debug": false,
        "f1": false,
        "visibilitySettings": {}
      },
      "hasShownWelcome": true
    },
    "earth@server:c248ac80-df2f-4505-9087-3ea65a80a89a": {
      "genSettings": "",
      "mapState": {
        "zoomLevel": 18.0,
        "centerLongitude": -67.57751047611237,
        "centerLatitude": 10.287970091503958,
        "mapStyle": "osm",
        "infoPannel": false,
        "debug": false,
        "f1": false,
        "visibilitySettings": {
          "mobs": true,
          "creatures": true,
          "right_click_marker": false,
          "main_player_marker": true,
          "player_directions": true,
          "other_players": true,
          "player_names": true
        }
      },
      "hasShownWelcome": true
    },
    "earth@server:843efa9f-fd09-4066-a153-4333f3b31ebd": {
      "genSettings": "",
      "mapState": {
        "zoomLevel": 18.0,
        "centerLongitude": -67.57927536964418,
        "centerLatitude": 10.287869806221291,
        "mapStyle": "osm",
        "infoPannel": false,
        "debug": false,
        "f1": false,
        "visibilitySettings": {
          "mobs": true,
          "creatures": true,
          "right_click_marker": false,
          "main_player_marker": true,
          "player_directions": true,
          "other_players": true,
          "player_names": true
        }
      },
      "hasShownWelcome": true
    },
    "minecraft!@integrated_server@localhost": {
      "genSettings": "",
      "mapState": {
        "zoomLevel": 0.0,
        "centerLongitude": 0.0,
        "centerLatitude": 0.0,
        "mapStyle": "",
        "infoPannel": false,
        "debug": false,
        "f1": false,
        "visibilitySettings": {}
      },
      "hasShownWelcome": true
    },
    "IE@integrated_server@localhost": {
      "genSettings": "",
      "mapState": {
        "zoomLevel": 0.0,
        "centerLongitude": 0.0,
        "centerLatitude": 0.0,
        "mapStyle": "",
        "infoPannel": false,
        "debug": false,
        "f1": false,
        "visibilitySettings": {}
      },
      "hasShownWelcome": true
    },
    "earth@server:084dc477-f41b-4765-966f-9a8bc87d5a56": {
      "genSettings": "",
      "mapState": {
        "zoomLevel": 16.0,
        "centerLongitude": -67.66394197940842,
        "centerLatitude": 10.27303251173765,
        "mapStyle": "osm",
        "infoPannel": false,
        "debug": false,
        "f1": false,
        "visibilitySettings": {
          "mobs": true,
          "creatures": true,
          "right_click_marker": false,
          "main_player_marker": true,
          "player_directions": true,
          "other_players": true,
          "player_names": true
        }
      },
      "hasShownWelcome": true
    },
    "MTS@integrated_server@localhost": {
      "genSettings": "",
      "mapState": {
        "zoomLevel": 0.0,
        "centerLongitude": 0.0,
        "centerLatitude": 0.0,
        "mapStyle": "",
        "infoPannel": false,
        "debug": false,
        "f1": false,
        "visibilitySettings": {}
      },
      "hasShownWelcome": true
    },
    "earth@server:f58a5d6b-5dc3-4085-aafa-73abe9395e6a": {
      "genSettings": "",
      "mapState": {
        "zoomLevel": 16.0,
        "centerLongitude": -67.92797582815844,
        "centerLatitude": 10.151420210976875,
        "mapStyle": "osm",
        "infoPannel": false,
        "debug": false,
        "f1": false,
        "visibilitySettings": {
          "mobs": true,
          "creatures": true,
          "right_click_marker": false,
          "main_player_marker": true,
          "player_directions": true,
          "other_players": true,
          "player_names": true
        }
      },
      "hasShownWelcome": true
    }
  }
}